<?xml version="1.0" encoding="windows-1252"?>
<!-- Uploaded to: SVG Repo, www.svgrepo.com, Generator: SVG Repo Mixer Tools -->
<svg fill="#ddd" height="800px" width="800px" version="1.1" id="Layer_1" xmlns="http://www.w3.org/2000/svg" xmlns:xlink="http://www.w3.org/1999/xlink" viewBox="0 0 512.001 512.001" xml:space="preserve">
<g>
	<g>
		<path d="M472.448,85.717H202.965c-8.917,0-17.664,3.072-24.683,8.661L14.848,225.109C5.419,232.661,0,243.904,0,255.979    c0,12.096,5.419,23.339,14.848,30.891L178.283,417.6c6.976,5.611,15.744,8.683,24.683,8.683h269.483    c21.803,0,39.552-17.749,39.552-39.573v-261.44C512,103.467,494.251,85.717,472.448,85.717z"/>
	</g>
</g>
</svg>